User-Id,First-Name,Last-Name,Rating
0,FirstName 0,LastName 0,158
1,FirstName 1,LastName 1,126
2,FirstName 2,LastName 2,194
3,FirstName 3,LastName 3,149
4,FirstName 4,LastName 4,12
5,FirstName 5,LastName 5,91
6,FirstName 6,LastName 6,150
7,FirstName 7,LastName 7,192
8,FirstName 8,LastName 8,67
9,FirstName 9,LastName 9,94
